examples/stroby/m_stroby.vcd
$date
    Mon Oct 26 16:05:09 2015
$end
$version
    MyHDL 0.9.0
$end
$timescale
    1ns
$end

$scope module m_stroby $end
$var reg 1 ! reset $end
$var reg 48 " led $end
$var reg 1 # clock $end
$var reg 1 $ left_not_right $end
$var reg 12 % clk_cnt $end
$var reg 1 & strobe $end
$var reg 66 ' led_bit_mem $end
$upscope $end

$enddefinitions $end
$dumpvars
0!
b000000000000000000000000000000000000000000000000 "
0#
1$
b000000000000 %
0&
b000000000000000000000000000000000000000000000000000000000000000001 '
$end
#2
1#
#4
0#
#6
1#
#8
0#
#10
1#
#12
0#
#14
1#
#16
0#
#18
1#
#20
0#
#22
1#
#24
0#
#26
1#
#28
0#
#30
1#
#32
0#
#34
1#
#36
0#
#38
1#
#40
0#
#42
1#
#44
0#
#46
1#
#48
0#
#50
1#
#52
0#
#54
1#
#56
0#
#58
1#
#60
0#
#62
1#
#64
0#
#66
1#
#68
0#
#70
1#
#72
0#
#74
1#
#76
0#
#78
1#
#80
0#
#82
1#
#84
0#
#86
1#
#88
0#
#90
1#
#92
0#
#94
1#
#96
0#
#98
1#
#100
0#
1!
#102
1#
b000000000001 %
#104
0#
#106
1#
b000000000010 %
#108
0#
#110
1#
b000000000011 %
#112
0#
#114
1#
b000000000100 %
#116
0#
#118
1#
b000000000101 %
#120
0#
#122
1#
b000000000110 %
#124
0#
#126
1#
b000000000111 %
#128
0#
#130
1#
b000000001000 %
#132
0#
#134
1#
b000000001001 %
#136
0#
#138
1#
b000000001010 %
#140
0#
#142
1#
b000000001011 %
#144
0#
#146
1#
b000000001100 %
#148
0#
#150
1#
b000000001101 %
#152
0#
#154
1#
b000000001110 %
#156
0#
#158
1#
b000000001111 %
#160
0#
#162
1#
b000000010000 %
#164
0#
#166
1#
b000000010001 %
#168
0#
#170
1#
b000000010010 %
#172
0#
#174
1#
b000000010011 %
#176
0#
#178
1#
b000000010100 %
#180
0#
#182
1#
b000000010101 %
#184
0#
#186
1#
b000000010110 %
#188
0#
#190
1#
b000000010111 %
#192
0#
#194
1#
b000000011000 %
#196
0#
#198
1#
b000000011001 %
#200
0#
#202
1#
b000000011010 %
#204
0#
#206
1#
b000000011011 %
#208
0#
#210
1#
b000000011100 %
#212
0#
#214
1#
b000000011101 %
#216
0#
#218
1#
b000000011110 %
#220
0#
#222
1#
b000000011111 %
#224
0#
#226
1#
b000000100000 %
#228
0#
#230
1#
b000000100001 %
#232
0#
#234
1#
b000000100010 %
#236
0#
#238
1#
b000000100011 %
#240
0#
#242
1#
b000000100100 %
#244
0#
#246
1#
b000000100101 %
#248
0#
#250
1#
b000000100110 %
#252
0#
#254
1#
b000000100111 %
#256
0#
#258
1#
b000000101000 %
#260
0#
#262
1#
b000000101001 %
#264
0#
#266
1#
b000000101010 %
#268
0#
#270
1#
b000000101011 %
#272
0#
#274
1#
b000000101100 %
#276
0#
#278
1#
b000000101101 %
#280
0#
#282
1#
b000000101110 %
#284
0#
#286
1#
b000000101111 %
#288
0#
#290
1#
b000000110000 %
#292
0#
#294
1#
b000000110001 %
#296
0#
#298
1#
b000000110010 %
#300
0#
#302
1#
b000000110011 %
#304
0#
#306
1#
b000000110100 %
#308
0#
#310
1#
b000000110101 %
#312
0#
#314
1#
b000000110110 %
#316
0#
#318
1#
b000000110111 %
#320
0#
#322
1#
b000000111000 %
#324
0#
#326
1#
b000000111001 %
#328
0#
#330
1#
b000000111010 %
#332
0#
#334
1#
b000000111011 %
#336
0#
#338
1#
b000000111100 %
#340
0#
#342
1#
b000000111101 %
#344
0#
#346
1#
b000000111110 %
#348
0#
#350
1#
b000000111111 %
#352
0#
#354
1#
b000001000000 %
#356
0#
#358
1#
b000001000001 %
#360
0#
#362
1#
b000001000010 %
#364
0#
#366
1#
b000001000011 %
#368
0#
#370
1#
b000001000100 %
#372
0#
#374
1#
b000001000101 %
#376
0#
#378
1#
b000001000110 %
#380
0#
#382
1#
b000001000111 %
#384
0#
#386
1#
b000001001000 %
#388
0#
#390
1#
b000001001001 %
#392
0#
#394
1#
b000001001010 %
#396
0#
#398
1#
b000001001011 %
#400
0#
#402
1#
b000001001100 %
#404
0#
#406
1#
b000001001101 %
#408
0#
#410
1#
b000001001110 %
#412
0#
#414
1#
b000001001111 %
#416
0#
#418
1#
b000001010000 %
#420
0#
#422
1#
b000001010001 %
#424
0#
#426
1#
b000001010010 %
#428
0#
#430
1#
b000001010011 %
#432
0#
#434
1#
b000001010100 %
#436
0#
#438
1#
b000001010101 %
#440
0#
#442
1#
b000001010110 %
#444
0#
#446
1#
b000001010111 %
#448
0#
#450
1#
b000001011000 %
#452
0#
#454
1#
b000001011001 %
#456
0#
#458
1#
b000001011010 %
#460
0#
#462
1#
b000001011011 %
#464
0#
#466
1#
b000001011100 %
#468
0#
#470
1#
b000001011101 %
#472
0#
#474
1#
b000001011110 %
#476
0#
#478
1#
b000001011111 %
#480
0#
#482
1#
b000001100000 %
#484
0#
#486
1#
b000001100001 %
#488
0#
#490
1#
b000001100010 %
#492
0#
#494
1#
b000001100011 %
#496
0#
#498
1#
b000001100100 %
#500
0#
#502
1#
b000001100101 %
#504
0#
#506
1#
b000001100110 %
#508
0#
#510
1#
b000001100111 %
#512
0#
#514
1#
b000001101000 %
#516
0#
#518
1#
b000001101001 %
#520
0#
#522
1#
b000001101010 %
#524
0#
#526
1#
b000001101011 %
#528
0#
#530
1#
b000001101100 %
#532
0#
#534
1#
b000001101101 %
#536
0#
#538
1#
b000001101110 %
#540
0#
#542
1#
b000001101111 %
#544
0#
#546
1#
b000001110000 %
#548
0#
#550
1#
b000001110001 %
#552
0#
#554
1#
b000001110010 %
#556
0#
#558
1#
b000001110011 %
#560
0#
#562
1#
b000001110100 %
#564
0#
#566
1#
b000001110101 %
#568
0#
#570
1#
b000001110110 %
#572
0#
#574
1#
b000001110111 %
#576
0#
#578
1#
b000001111000 %
#580
0#
#582
1#
b000001111001 %
#584
0#
#586
1#
b000001111010 %
#588
0#
#590
1#
b000001111011 %
#592
0#
#594
1#
b000001111100 %
#596
0#
#598
1#
b000001111101 %
#600
0#
#602
1#
b000001111110 %
#604
0#
#606
1#
b000001111111 %
#608
0#
#610
1#
b000010000000 %
#612
0#
#614
1#
b000010000001 %
#616
0#
#618
1#
b000010000010 %
#620
0#
#622
1#
b000010000011 %
#624
0#
#626
1#
b000010000100 %
#628
0#
#630
1#
b000010000101 %
#632
0#
#634
1#
b000010000110 %
#636
0#
#638
1#
b000010000111 %
#640
0#
#642
1#
b000010001000 %
#644
0#
#646
1#
b000010001001 %
#648
0#
#650
1#
b000010001010 %
#652
0#
#654
1#
b000010001011 %
#656
0#
#658
1#
b000010001100 %
#660
0#
#662
1#
b000010001101 %
#664
0#
#666
1#
b000010001110 %
#668
0#
#670
1#
b000010001111 %
#672
0#
#674
1#
b000010010000 %
#676
0#
#678
1#
b000010010001 %
#680
0#
#682
1#
b000010010010 %
#684
0#
#686
1#
b000010010011 %
#688
0#
#690
1#
b000010010100 %
#692
0#
#694
1#
b000010010101 %
#696
0#
#698
1#
b000010010110 %
#700
0#
#702
1#
b000010010111 %
#704
0#
#706
1#
b000010011000 %
#708
0#
#710
1#
b000010011001 %
#712
0#
#714
1#
b000010011010 %
#716
0#
#718
1#
b000010011011 %
#720
0#
#722
1#
b000010011100 %
#724
0#
#726
1#
b000010011101 %
#728
0#
#730
1#
b000010011110 %
#732
0#
#734
1#
b000010011111 %
#736
0#
#738
1#
b000010100000 %
#740
0#
#742
1#
b000010100001 %
#744
0#
#746
1#
b000010100010 %
#748
0#
#750
1#
b000010100011 %
#752
0#
#754
1#
b000010100100 %
#756
0#
#758
1#
b000010100101 %
#760
0#
#762
1#
b000010100110 %
#764
0#
#766
1#
b000010100111 %
#768
0#
#770
1#
b000010101000 %
#772
0#
#774
1#
b000010101001 %
#776
0#
#778
1#
b000010101010 %
#780
0#
#782
1#
b000010101011 %
#784
0#
#786
1#
b000010101100 %
#788
0#
#790
1#
b000010101101 %
#792
0#
#794
1#
b000010101110 %
#796
0#
#798
1#
b000010101111 %
#800
0#
#802
1#
b000010110000 %
#804
0#
#806
1#
b000010110001 %
#808
0#
#810
1#
b000010110010 %
#812
0#
#814
1#
b000010110011 %
#816
0#
#818
1#
b000010110100 %
#820
0#
#822
1#
b000010110101 %
#824
0#
#826
1#
b000010110110 %
#828
0#
#830
1#
b000010110111 %
#832
0#
#834
1#
b000010111000 %
#836
0#
#838
1#
b000010111001 %
#840
0#
#842
1#
b000010111010 %
#844
0#
#846
1#
b000010111011 %
#848
0#
#850
1#
b000010111100 %
#852
0#
#854
1#
b000010111101 %
#856
0#
#858
1#
b000010111110 %
#860
0#
#862
1#
b000010111111 %
#864
0#
#866
1#
b000011000000 %
#868
0#
#870
1#
b000011000001 %
#872
0#
#874
1#
b000011000010 %
#876
0#
#878
1#
b000011000011 %
#880
0#
#882
1#
b000011000100 %
#884
0#
#886
1#
b000011000101 %
#888
0#
#890
1#
b000011000110 %
#892
0#
#894
1#
b000011000111 %
#896
0#
#898
1#
b000011001000 %
#900
0#
#902
1#
b000011001001 %
#904
0#
#906
1#
b000011001010 %
#908
0#
#910
1#
b000011001011 %
#912
0#
#914
1#
b000011001100 %
#916
0#
#918
1#
b000011001101 %
#920
0#
#922
1#
b000011001110 %
#924
0#
#926
1#
b000011001111 %
#928
0#
#930
1#
b000011010000 %
#932
0#
#934
1#
b000011010001 %
#936
0#
#938
1#
b000011010010 %
#940
0#
#942
1#
b000011010011 %
#944
0#
#946
1#
b000011010100 %
#948
0#
#950
1#
b000011010101 %
#952
0#
#954
1#
b000011010110 %
#956
0#
#958
1#
b000011010111 %
#960
0#
#962
1#
b000011011000 %
#964
0#
#966
1#
b000011011001 %
#968
0#
#970
1#
b000011011010 %
#972
0#
#974
1#
b000011011011 %
#976
0#
#978
1#
b000011011100 %
#980
0#
#982
1#
b000011011101 %
#984
0#
#986
1#
b000011011110 %
#988
0#
#990
1#
b000011011111 %
#992
0#
#994
1#
b000011100000 %
#996
0#
#998
1#
b000011100001 %
#1000
0#
#1002
1#
b000011100010 %
#1004
0#
#1006
1#
b000011100011 %
#1008
0#
#1010
1#
b000011100100 %
#1012
0#
#1014
1#
b000011100101 %
#1016
0#
#1018
1#
b000011100110 %
#1020
0#
#1022
1#
b000011100111 %
#1024
0#
#1026
1#
b000011101000 %
#1028
0#
#1030
1#
b000011101001 %
#1032
0#
#1034
1#
b000011101010 %
#1036
0#
#1038
1#
b000011101011 %
#1040
0#
#1042
1#
b000011101100 %
#1044
0#
#1046
1#
b000011101101 %
#1048
0#
#1050
1#
b000011101110 %
#1052
0#
#1054
1#
b000011101111 %
#1056
0#
#1058
1#
b000011110000 %
#1060
0#
#1062
1#
b000011110001 %
#1064
0#
#1066
1#
b000011110010 %
#1068
0#
#1070
1#
b000011110011 %
#1072
0#
#1074
1#
b000011110100 %
#1076
0#
#1078
1#
b000011110101 %
#1080
0#
#1082
1#
b000011110110 %
#1084
0#
#1086
1#
b000011110111 %
#1088
0#
#1090
1#
b000011111000 %
#1092
0#
#1094
1#
b000011111001 %
#1096
0#
#1098
1#
b000011111010 %
#1100
0#
#1102
1#
b000011111011 %
#1104
0#
#1106
1#
b000011111100 %
#1108
0#
#1110
1#
b000011111101 %
#1112
0#
#1114
1#
b000011111110 %
#1116
0#
#1118
1#
b000011111111 %
#1120
0#
#1122
1#
b000100000000 %
#1124
0#
#1126
1#
b000100000001 %
#1128
0#
#1130
1#
b000100000010 %
#1132
0#
#1134
1#
b000100000011 %
#1136
0#
#1138
1#
b000100000100 %
#1140
0#
#1142
1#
b000100000101 %
#1144
0#
#1146
1#
b000100000110 %
#1148
0#
#1150
1#
b000100000111 %
#1152
0#
#1154
1#
b000100001000 %
#1156
0#
#1158
1#
b000100001001 %
#1160
0#
#1162
1#
b000100001010 %
#1164
0#
#1166
1#
b000100001011 %
#1168
0#
#1170
1#
b000100001100 %
#1172
0#
#1174
1#
b000100001101 %
#1176
0#
#1178
1#
b000100001110 %
#1180
0#
#1182
1#
b000100001111 %
#1184
0#
#1186
1#
b000100010000 %
#1188
0#
#1190
1#
b000100010001 %
#1192
0#
#1194
1#
b000100010010 %
#1196
0#
#1198
1#
b000100010011 %
#1200
0#
#1202
1#
b000100010100 %
#1204
0#
#1206
1#
b000100010101 %
#1208
0#
#1210
1#
b000100010110 %
#1212
0#
#1214
1#
b000100010111 %
#1216
0#
#1218
1#
b000100011000 %
#1220
0#
#1222
1#
b000100011001 %
#1224
0#
#1226
1#
b000100011010 %
#1228
0#
#1230
1#
b000100011011 %
#1232
0#
#1234
1#
b000100011100 %
#1236
0#
#1238
1#
b000100011101 %
#1240
0#
#1242
1#
b000100011110 %
#1244
0#
#1246
1#
b000100011111 %
#1248
0#
#1250
1#
b000100100000 %
#1252
0#
#1254
1#
b000100100001 %
#1256
0#
#1258
1#
b000100100010 %
#1260
0#
#1262
1#
b000100100011 %
#1264
0#
#1266
1#
b000100100100 %
#1268
0#
#1270
1#
b000100100101 %
#1272
0#
#1274
1#
b000100100110 %
#1276
0#
#1278
1#
b000100100111 %
#1280
0#
#1282
1#
b000100101000 %
#1284
0#
#1286
1#
b000100101001 %
#1288
0#
#1290
1#
b000100101010 %
#1292
0#
#1294
1#
b000100101011 %
#1296
0#
#1298
1#
b000100101100 %
#1300
0#
#1302
1#
b000100101101 %
#1304
0#
#1306
1#
b000100101110 %
#1308
0#
#1310
1#
b000100101111 %
#1312
0#
#1314
1#
b000100110000 %
#1316
0#
#1318
1#
b000100110001 %
#1320
0#
#1322
1#
b000100110010 %
#1324
0#
#1326
1#
b000100110011 %
#1328
0#
#1330
1#
b000100110100 %
#1332
0#
#1334
1#
b000100110101 %
#1336
0#
#1338
1#
b000100110110 %
#1340
0#
#1342
1#
b000100110111 %
#1344
0#
#1346
1#
b000100111000 %
#1348
0#
#1350
1#
b000100111001 %
#1352
0#
#1354
1#
b000100111010 %
#1356
0#
#1358
1#
b000100111011 %
#1360
0#
#1362
1#
b000100111100 %
#1364
0#
#1366
1#
b000100111101 %
#1368
0#
#1370
1#
b000100111110 %
#1372
0#
#1374
1#
b000100111111 %
#1376
0#
#1378
1#
b000101000000 %
#1380
0#
#1382
1#
b000101000001 %
#1384
0#
#1386
1#
b000101000010 %
#1388
0#
#1390
1#
b000101000011 %
#1392
0#
#1394
1#
b000101000100 %
#1396
0#
#1398
1#
b000101000101 %
#1400
0#
#1402
1#
b000101000110 %
#1404
0#
#1406
1#
b000101000111 %
#1408
0#
#1410
1#
b000101001000 %
#1412
0#
#1414
1#
b000101001001 %
#1416
0#
#1418
1#
b000101001010 %
#1420
0#
#1422
1#
b000101001011 %
#1424
0#
#1426
1#
b000101001100 %
#1428
0#
#1430
1#
b000101001101 %
#1432
0#
#1434
1#
b000101001110 %
#1436
0#
#1438
1#
b000101001111 %
#1440
0#
#1442
1#
b000101010000 %
#1444
0#
#1446
1#
b000101010001 %
#1448
0#
#1450
1#
b000101010010 %
#1452
0#
#1454
1#
b000101010011 %
#1456
0#
#1458
1#
b000101010100 %
#1460
0#
#1462
1#
b000101010101 %
#1464
0#
#1466
1#
b000101010110 %
#1468
0#
#1470
1#
b000101010111 %
#1472
0#
#1474
1#
b000101011000 %
#1476
0#
#1478
1#
b000101011001 %
#1480
0#
#1482
1#
b000101011010 %
#1484
0#
#1486
1#
b000101011011 %
#1488
0#
#1490
1#
b000101011100 %
#1492
0#
#1494
1#
b000101011101 %
#1496
0#
#1498
1#
b000101011110 %
#1500
0#
#1502
1#
b000101011111 %
#1504
0#
#1506
1#
b000101100000 %
#1508
0#
#1510
1#
b000101100001 %
#1512
0#
#1514
1#
b000101100010 %
#1516
0#
#1518
1#
b000101100011 %
#1520
0#
#1522
1#
b000101100100 %
#1524
0#
#1526
1#
b000101100101 %
#1528
0#
#1530
1#
b000101100110 %
#1532
0#
#1534
1#
b000101100111 %
#1536
0#
#1538
1#
b000101101000 %
#1540
0#
#1542
1#
b000101101001 %
#1544
0#
#1546
1#
b000101101010 %
#1548
0#
#1550
1#
b000101101011 %
#1552
0#
#1554
1#
b000101101100 %
#1556
0#
#1558
1#
b000101101101 %
#1560
0#
#1562
1#
b000101101110 %
#1564
0#
#1566
1#
b000101101111 %
#1568
0#
#1570
1#
b000101110000 %
#1572
0#
#1574
1#
b000101110001 %
#1576
0#
#1578
1#
b000101110010 %
#1580
0#
#1582
1#
b000101110011 %
#1584
0#
#1586
1#
b000101110100 %
#1588
0#
#1590
1#
b000101110101 %
#1592
0#
#1594
1#
b000101110110 %
#1596
0#
#1598
1#
b000101110111 %
#1600
0#
#1602
1#
b000101111000 %
#1604
0#
#1606
1#
b000101111001 %
#1608
0#
#1610
1#
b000101111010 %
#1612
0#
#1614
1#
b000101111011 %
#1616
0#
#1618
1#
b000101111100 %
#1620
0#
#1622
1#
b000101111101 %
#1624
0#
#1626
1#
b000101111110 %
#1628
0#
#1630
1#
b000101111111 %
#1632
0#
#1634
1#
b000110000000 %
#1636
0#
#1638
1#
b000110000001 %
#1640
0#
#1642
1#
b000110000010 %
#1644
0#
#1646
1#
b000110000011 %
#1648
0#
#1650
1#
b000110000100 %
#1652
0#
#1654
1#
b000110000101 %
#1656
0#
#1658
1#
b000110000110 %
#1660
0#
#1662
1#
b000110000111 %
#1664
0#
#1666
1#
b000110001000 %
#1668
0#
#1670
1#
b000110001001 %
#1672
0#
#1674
1#
b000110001010 %
#1676
0#
#1678
1#
b000110001011 %
#1680
0#
#1682
1#
b000110001100 %
#1684
0#
#1686
1#
b000110001101 %
#1688
0#
#1690
1#
b000110001110 %
#1692
0#
#1694
1#
b000110001111 %
#1696
0#
#1698
1#
b000110010000 %
#1700
0#
#1702
1#
b000110010001 %
#1704
0#
#1706
1#
b000110010010 %
#1708
0#
#1710
1#
b000110010011 %
#1712
0#
#1714
1#
b000110010100 %
#1716
0#
#1718
1#
b000110010101 %
#1720
0#
#1722
1#
b000110010110 %
#1724
0#
#1726
1#
b000110010111 %
#1728
0#
#1730
1#
b000110011000 %
#1732
0#
#1734
1#
b000110011001 %
#1736
0#
#1738
1#
b000110011010 %
#1740
0#
#1742
1#
b000110011011 %
#1744
0#
#1746
1#
b000110011100 %
#1748
0#
#1750
1#
b000110011101 %
#1752
0#
#1754
1#
b000110011110 %
#1756
0#
#1758
1#
b000110011111 %
#1760
0#
#1762
1#
b000110100000 %
#1764
0#
#1766
1#
b000110100001 %
#1768
0#
#1770
1#
b000110100010 %
#1772
0#
#1774
1#
b000110100011 %
#1776
0#
#1778
1#
b000110100100 %
#1780
0#
#1782
1#
b000110100101 %
#1784
0#
#1786
1#
b000110100110 %
#1788
0#
#1790
1#
b000110100111 %
#1792
0#
#1794
1#
b000110101000 %
#1796
0#
#1798
1#
b000110101001 %
#1800
0#
#1802
1#
b000110101010 %
#1804
0#
#1806
1#
b000110101011 %
#1808
0#
#1810
1#
b000110101100 %
#1812
0#
#1814
1#
b000110101101 %
#1816
0#
#1818
1#
b000110101110 %
#1820
0#
#1822
1#
b000110101111 %
#1824
0#
#1826
1#
b000110110000 %
#1828
0#
#1830
1#
b000110110001 %
#1832
0#
#1834
1#
b000110110010 %
#1836
0#
#1838
1#
b000110110011 %
#1840
0#
#1842
1#
b000110110100 %
#1844
0#
#1846
1#
b000110110101 %
#1848
0#
#1850
1#
b000110110110 %
#1852
0#
#1854
1#
b000110110111 %
#1856
0#
#1858
1#
b000110111000 %
#1860
0#
#1862
1#
b000110111001 %
#1864
0#
#1866
1#
b000110111010 %
#1868
0#
#1870
1#
b000110111011 %
#1872
0#
#1874
1#
b000110111100 %
#1876
0#
#1878
1#
b000110111101 %
#1880
0#
#1882
1#
b000110111110 %
#1884
0#
#1886
1#
b000110111111 %
#1888
0#
#1890
1#
b000111000000 %
#1892
0#
#1894
1#
b000111000001 %
#1896
0#
#1898
1#
b000111000010 %
#1900
0#
#1902
1#
b000111000011 %
#1904
0#
#1906
1#
b000111000100 %
#1908
0#
#1910
1#
b000111000101 %
#1912
0#
#1914
1#
b000111000110 %
#1916
0#
#1918
1#
b000111000111 %
#1920
0#
#1922
1#
b000111001000 %
#1924
0#
#1926
1#
b000111001001 %
#1928
0#
#1930
1#
b000111001010 %
#1932
0#
#1934
1#
b000111001011 %
#1936
0#
#1938
1#
b000111001100 %
#1940
0#
#1942
1#
b000111001101 %
#1944
0#
#1946
1#
b000111001110 %
#1948
0#
#1950
1#
b000111001111 %
#1952
0#
#1954
1#
b000111010000 %
#1956
0#
#1958
1#
b000111010001 %
#1960
0#
#1962
1#
b000111010010 %
#1964
0#
#1966
1#
b000111010011 %
#1968
0#
#1970
1#
b000111010100 %
#1972
0#
#1974
1#
b000111010101 %
#1976
0#
#1978
1#
b000111010110 %
#1980
0#
#1982
1#
b000111010111 %
#1984
0#
#1986
1#
b000111011000 %
#1988
0#
#1990
1#
b000111011001 %
#1992
0#
#1994
1#
b000111011010 %
#1996
0#
#1998
1#
b000111011011 %
#2000
0#
#2002
1#
b000111011100 %
#2004
0#
#2006
1#
b000111011101 %
#2008
0#
#2010
1#
b000111011110 %
#2012
0#
#2014
1#
b000111011111 %
#2016
0#
#2018
1#
b000111100000 %
#2020
0#
#2022
1#
b000111100001 %
#2024
0#
#2026
1#
b000111100010 %
#2028
0#
#2030
1#
b000111100011 %
#2032
0#
#2034
1#
b000111100100 %
#2036
0#
#2038
1#
b000111100101 %
#2040
0#
#2042
1#
b000111100110 %
#2044
0#
#2046
1#
b000111100111 %
#2048
0#
#2050
1#
b000111101000 %
#2052
0#
#2054
1#
b000111101001 %
#2056
0#
#2058
1#
b000111101010 %
#2060
0#
#2062
1#
b000111101011 %
#2064
0#
#2066
1#
b000111101100 %
#2068
0#
#2070
1#
b000111101101 %
#2072
0#
#2074
1#
b000111101110 %
#2076
0#
#2078
1#
b000111101111 %
#2080
0#
#2082
1#
b000111110000 %
#2084
0#
#2086
1#
b000111110001 %
#2088
0#
#2090
1#
b000111110010 %
#2092
0#
#2094
1#
b000111110011 %
#2096
0#
#2098
1#
b000111110100 %
#2100
0#
#2102
1#
b000111110101 %
#2104
0#
#2106
1#
b000111110110 %
#2108
0#
#2110
1#
b000111110111 %
#2112
0#
#2114
1#
b000111111000 %
#2116
0#
#2118
1#
b000111111001 %
#2120
0#
#2122
1#
b000111111010 %
#2124
0#
#2126
1#
b000111111011 %
#2128
0#
#2130
1#
b000111111100 %
#2132
0#
#2134
1#
b000111111101 %
#2136
0#
#2138
1#
b000111111110 %
#2140
0#
#2142
1#
b000111111111 %
#2144
0#
#2146
1#
b001000000000 %
#2148
0#
#2150
1#
b001000000001 %
#2152
0#
#2154
1#
b001000000010 %
#2156
0#
#2158
1#
b001000000011 %
#2160
0#
#2162
1#
b001000000100 %
#2164
0#
#2166
1#
b001000000101 %
#2168
0#
#2170
1#
b001000000110 %
#2172
0#
#2174
1#
b001000000111 %
#2176
0#
#2178
1#
b001000001000 %
#2180
0#
#2182
1#
b001000001001 %
#2184
0#
#2186
1#
b001000001010 %
#2188
0#
#2190
1#
b001000001011 %
#2192
0#
#2194
1#
b001000001100 %
#2196
0#
#2198
1#
b001000001101 %
#2200
0#
#2202
1#
b001000001110 %
#2204
0#
#2206
1#
b001000001111 %
#2208
0#
#2210
1#
b001000010000 %
#2212
0#
#2214
1#
b001000010001 %
#2216
0#
#2218
1#
b001000010010 %
#2220
0#
#2222
1#
b001000010011 %
#2224
0#
#2226
1#
b001000010100 %
#2228
0#
#2230
1#
b001000010101 %
#2232
0#
#2234
1#
b001000010110 %
#2236
0#
#2238
1#
b001000010111 %
#2240
0#
#2242
1#
b001000011000 %
#2244
0#
#2246
1#
b001000011001 %
#2248
0#
#2250
1#
b001000011010 %
#2252
0#
#2254
1#
b001000011011 %
#2256
0#
#2258
1#
b001000011100 %
#2260
0#
#2262
1#
b001000011101 %
#2264
0#
#2266
1#
b001000011110 %
#2268
0#
#2270
1#
b001000011111 %
#2272
0#
#2274
1#
b001000100000 %
#2276
0#
#2278
1#
b001000100001 %
#2280
0#
#2282
1#
b001000100010 %
#2284
0#
#2286
1#
b001000100011 %
#2288
0#
#2290
1#
b001000100100 %
#2292
0#
#2294
1#
b001000100101 %
#2296
0#
#2298
1#
b001000100110 %
#2300
0#
#2302
1#
b001000100111 %
#2304
0#
#2306
1#
b001000101000 %
#2308
0#
#2310
1#
b001000101001 %
#2312
0#
#2314
1#
b001000101010 %
#2316
0#
#2318
1#
b001000101011 %
#2320
0#
#2322
1#
b001000101100 %
#2324
0#
#2326
1#
b001000101101 %
#2328
0#
#2330
1#
b001000101110 %
#2332
0#
#2334
1#
b001000101111 %
#2336
0#
#2338
1#
b001000110000 %
#2340
0#
#2342
1#
b001000110001 %
#2344
0#
#2346
1#
b001000110010 %
#2348
0#
#2350
1#
b001000110011 %
#2352
0#
#2354
1#
b001000110100 %
#2356
0#
#2358
1#
b001000110101 %
#2360
0#
#2362
1#
b001000110110 %
#2364
0#
#2366
1#
b001000110111 %
#2368
0#
#2370
1#
b001000111000 %
#2372
0#
#2374
1#
b001000111001 %
#2376
0#
#2378
1#
b001000111010 %
#2380
0#
#2382
1#
b001000111011 %
#2384
0#
#2386
1#
b001000111100 %
#2388
0#
#2390
1#
b001000111101 %
#2392
0#
#2394
1#
b001000111110 %
#2396
0#
#2398
1#
b001000111111 %
#2400
0#
#2402
1#
b001001000000 %
#2404
0#
#2406
1#
b001001000001 %
#2408
0#
#2410
1#
b001001000010 %
#2412
0#
#2414
1#
b001001000011 %
#2416
0#
#2418
1#
b001001000100 %
#2420
0#
#2422
1#
b001001000101 %
#2424
0#
#2426
1#
b001001000110 %
#2428
0#
#2430
1#
b001001000111 %
#2432
0#
#2434
1#
b001001001000 %
#2436
0#
#2438
1#
b001001001001 %
#2440
0#
#2442
1#
b001001001010 %
#2444
0#
#2446
1#
b001001001011 %
#2448
0#
#2450
1#
b001001001100 %
#2452
0#
#2454
1#
b001001001101 %
#2456
0#
#2458
1#
b001001001110 %
#2460
0#
#2462
1#
b001001001111 %
#2464
0#
#2466
1#
b001001010000 %
#2468
0#
#2470
1#
b001001010001 %
#2472
0#
#2474
1#
b001001010010 %
#2476
0#
#2478
1#
b001001010011 %
#2480
0#
#2482
1#
b001001010100 %
#2484
0#
#2486
1#
b001001010101 %
#2488
0#
#2490
1#
b001001010110 %
#2492
0#
#2494
1#
b001001010111 %
#2496
0#
#2498
1#
b001001011000 %
#2500
0#
#2502
1#
b001001011001 %
#2504
0#
#2506
1#
b001001011010 %
#2508
0#
#2510
1#
b001001011011 %
#2512
0#
#2514
1#
b001001011100 %
#2516
0#
#2518
1#
b001001011101 %
#2520
0#
#2522
1#
b001001011110 %
#2524
0#
#2526
1#
b001001011111 %
#2528
0#
#2530
1#
b001001100000 %
#2532
0#
#2534
1#
b001001100001 %
#2536
0#
#2538
1#
b001001100010 %
#2540
0#
#2542
1#
b001001100011 %
#2544
0#
#2546
1#
b001001100100 %
#2548
0#
#2550
1#
b001001100101 %
#2552
0#
#2554
1#
b001001100110 %
#2556
0#
#2558
1#
b001001100111 %
#2560
0#
#2562
1#
b001001101000 %
#2564
0#
#2566
1#
b001001101001 %
#2568
0#
#2570
1#
b001001101010 %
#2572
0#
#2574
1#
b001001101011 %
#2576
0#
#2578
1#
b001001101100 %
#2580
0#
#2582
1#
b001001101101 %
#2584
0#
#2586
1#
b001001101110 %
#2588
0#
#2590
1#
b001001101111 %
#2592
0#
#2594
1#
b001001110000 %
#2596
0#
#2598
1#
b001001110001 %
#2600
0#
#2602
1#
b001001110010 %
#2604
0#
#2606
1#
b001001110011 %
#2608
0#
#2610
1#
b001001110100 %
#2612
0#
#2614
1#
b001001110101 %
#2616
0#
#2618
1#
b001001110110 %
#2620
0#
#2622
1#
b001001110111 %
#2624
0#
#2626
1#
b001001111000 %
#2628
0#
#2630
1#
b001001111001 %
#2632
0#
#2634
1#
b001001111010 %
#2636
0#
#2638
1#
b001001111011 %
#2640
0#
#2642
1#
b001001111100 %
#2644
0#
#2646
1#
b001001111101 %
#2648
0#
#2650
1#
b001001111110 %
#2652
0#
#2654
1#
b001001111111 %
#2656
0#
#2658
1#
b001010000000 %
#2660
0#
#2662
1#
b001010000001 %
#2664
0#
#2666
1#
b001010000010 %
#2668
0#
#2670
1#
b001010000011 %
#2672
0#
#2674
1#
b001010000100 %
#2676
0#
#2678
1#
b001010000101 %
#2680
0#
#2682
1#
b001010000110 %
#2684
0#
#2686
1#
b001010000111 %
#2688
0#
#2690
1#
b001010001000 %
#2692
0#
#2694
1#
b001010001001 %
#2696
0#
#2698
1#
b001010001010 %
#2700
0#
#2702
1#
b001010001011 %
#2704
0#
#2706
1#
b001010001100 %
#2708
0#
#2710
1#
b001010001101 %
#2712
0#
#2714
1#
b001010001110 %
#2716
0#
#2718
1#
b001010001111 %
#2720
0#
#2722
1#
b001010010000 %
#2724
0#
#2726
1#
b001010010001 %
#2728
0#
#2730
1#
b001010010010 %
#2732
0#
#2734
1#
b001010010011 %
#2736
0#
#2738
1#
b001010010100 %
#2740
0#
#2742
1#
b001010010101 %
#2744
0#
#2746
1#
b001010010110 %
#2748
0#
#2750
1#
b001010010111 %
#2752
0#
#2754
1#
b001010011000 %
#2756
0#
#2758
1#
b001010011001 %
#2760
0#
#2762
1#
b001010011010 %
#2764
0#
#2766
1#
b001010011011 %
#2768
0#
#2770
1#
b001010011100 %
#2772
0#
#2774
1#
b001010011101 %
#2776
0#
#2778
1#
b001010011110 %
#2780
0#
#2782
1#
b001010011111 %
#2784
0#
#2786
1#
b001010100000 %
#2788
0#
#2790
1#
b001010100001 %
#2792
0#
#2794
1#
b001010100010 %
#2796
0#
#2798
1#
b001010100011 %
#2800
0#
